DATIKA - The basics of R programming
…
Splitting data into groups and then computing summaries for each group is a common operation in data exploration.

We can use the dplyr group_by() function to create a special grouped data frame to facilitate such summaries.

library(tidyverse)
library(dplyr)
library(dslabs)
data(murders)
murders <- mutate(murders, rate = total / population * 10^5)

# group by region
murders %>% group_by(region)

# A tibble: 51 × 6
# Groups:   region [4]
   state                abb   region    population total  rate
   <chr>                <chr> <fct>          <dbl> <dbl> <dbl>
 1 Alabama              AL    South        4779736   135  2.82
 2 Alaska               AK    West          710231    19  2.68
 3 Arizona              AZ    West         6392017   232  3.63
 4 Arkansas             AR    South        2915918    93  3.19
 5 California           CA    West        37253956  1257  3.37
 6 Colorado             CO    West         5029196    65  1.29
 7 Connecticut          CT    Northeast    3574097    97  2.71
 8 Delaware             DE    South         897934    38  4.23
 9 District of Columbia DC    South         601723    99 16.5 
10 Florida              FL    South       19687653   669  3.40
# ℹ 41 more rows
…
