DATIKA - Visualize and compare change over time using gganimate.
…
Code

require(gganimate)
require(tidyverse)

Dataset

The dataset we will use for the example exercises is “Global CO2 emissions from cement production” (Andrew 2022).

Code

dat <- readr::read_csv("https://zenodo.org/record/7081360/files/1.%20Cement_emissions_data.csv", show_col_types = FALSE)
dat

# A tibble: 142 × 221
    Year Afghanistan Albania Algeria Andorra Angola Anguilla
   <dbl>       <dbl>   <dbl>   <dbl>   <dbl>  <dbl>    <dbl>
 1  1880          NA      NA      NA       0     NA       NA
 2  1881          NA      NA      NA       0     NA       NA
 3  1882          NA      NA      NA       0     NA       NA
 4  1883          NA      NA      NA       0     NA       NA
 5  1884          NA      NA      NA       0     NA       NA
 6  1885          NA      NA      NA       0     NA       NA
 7  1886          NA      NA      NA       0     NA       NA
 8  1887          NA      NA      NA       0     NA       NA
 9  1888          NA      NA      NA       0     NA       NA
10  1889          NA      NA      NA       0     NA       NA
# ℹ 132 more rows
# ℹ 214 more variables: `Antigua and Barbuda` <dbl>, Argentina <dbl>,
#   Armenia <dbl>, Aruba <dbl>, Australia <dbl>, Austria <dbl>,
#   Azerbaijan <dbl>, Bahamas <dbl>, Bahrain <dbl>, Bangladesh <dbl>,
#   Barbados <dbl>, Belarus <dbl>, Belgium <dbl>, Belize <dbl>, Benin <dbl>,
#   Bermuda <dbl>, Bhutan <dbl>, `Bonaire, Saint Eustatius and Saba` <dbl>,
#   `Bosnia and Herzegovina` <dbl>, Botswana <dbl>, Brazil <dbl>, …

We can subset the emmission measurement from 1960 onwards, and any columns with all NAs or zeros have been dropped. The table below displays all the data that will be used in this tutorial.

Code

dat |> 
  dplyr::filter(Year >= 1960) |> 
  select_if(function(x) all(!is.na(x))) |> 
  select_if(function(x) all(!x == 0))

# A tibble: 62 × 109
    Year Afghanistan Algeria Angola Argentina Armenia Australia Austria
   <dbl>       <dbl>   <dbl>  <dbl>     <dbl>   <dbl>     <dbl>   <dbl>
 1  1960        18.0    523.   79.4      1305    89.6      1381    1399
 2  1961        21.8    530.   76.9      1436   100.       1414    1523
 3  1962        29.1    432.   83.3      1446   113.       1450    1512
 4  1963        50.9    436.   94.5      1254   120.       1541    1635
 5  1964        61.8    389.  105.       1439   128.       1792    1865
 6  1965        83.6    367.  120.       1632   143.       1879    1999
 7  1966        87.2    327.  131.       1723   159.       1817    2224
 8  1967        65.4    360.  138.       1756   168.       1890    2246
 9  1968        47.1    429   152.       2064   174        1941    2250
10  1969        50.9    469.  189.       2148   179.       2130    2253
# ℹ 52 more rows
# ℹ 101 more variables: Azerbaijan <dbl>, Bangladesh <dbl>, Belarus <dbl>,
#   Belgium <dbl>, `Bosnia and Herzegovina` <dbl>, Brazil <dbl>,
#   Bulgaria <dbl>, Canada <dbl>, Chile <dbl>, China <dbl>, Colombia <dbl>,
#   Croatia <dbl>, Cyprus <dbl>, `Czech Republic` <dbl>, `North Korea` <dbl>,
#   `Democratic Republic of the Congo` <dbl>, Denmark <dbl>,
#   `Dominican Republic` <dbl>, Ecuador <dbl>, Egypt <dbl>, …
…
