DATIKA - Data cleaning, merging, and appending
…
lfq = readxl::read_excel(path = "../data/LFQ_sample_1.xls",
                         sheet = 1, 
                         skip = 0)

There are a few things to note about the above command. First, the file path and the filename (including the file extension) needs to be enclosed in either single or double quotes (i.e. the data/flower.txt bit) as the read_excel() function expects this to be a character string. If your working directory is already set to the directory which contains the file, you don’t need to include the entire file path just the filename.

In the example above, the file path is separated with a single forward slash /. This will work regardless of the operating system you are using. The argument sheet = 1 specify the function to pick the data from first sheet as spreadsheet store data in multiple sheet. The argument skip = 0 specify the function not to skip any row in the datase. This used to specify when the data has metadata information at the top.

After importing our data into R it doesn’t appear that R has done much, at least nothing appears in the R Console! To see the contents of the data frame we need to tell R to do so using a print function.

lfq %>% print()

# A tibble: 779 × 6
   Date                Species `Size (cm)` `Size Class` `Gear type` Landing_site
   <dttm>              <chr>         <dbl>        <dbl> <chr>       <chr>       
 1 2019-05-30 00:00:00 Siganu…        16.5           18 Speargun    Pwani       
 2 2019-05-30 00:00:00 Siganu…        12             12 Speargun    Pwani       
 3 2019-05-30 00:00:00 Siganu…        15             15 Speargun    Pwani       
 4 2019-05-30 00:00:00 Siganu…        33             33 Speargun    Pwani       
 5 2019-05-30 00:00:00 Siganu…        11.2           12 hook and l… Pwani       
 6 2019-05-30 00:00:00 Siganu…        17             18 hook and l… Pwani       
 7 2019-05-30 00:00:00 Siganu…        19             21 Gill net    Pwani       
 8 2019-05-30 00:00:00 Lethri…        10             12 Traps       Pwani       
 9 2019-05-30 00:00:00 Lethri…        11             12 Traps       Pwani       
10 2019-05-30 00:00:00 Lethri…         9             12 Traps       Pwani       
# ℹ 769 more rows
…
Pwani
2019-07-12 00:00:00
Siganus sutor
16.5
18
Gill net

1.6 Dropping and keeping variables

lfq.time %>% 
  select(-date)

# A tibble: 779 × 8
   landing_site   day month  year species           size_cm size_class gear_type
   <chr>        <int> <dbl> <dbl> <chr>               <dbl>      <dbl> <chr>    
 1 Pwani           30     5  2019 Siganus sutor        16.5         18 Speargun 
 2 Pwani           30     5  2019 Siganus sutor        12           12 Speargun 
 3 Pwani           30     5  2019 Siganus sutor        15           15 Speargun 
 4 Pwani           30     5  2019 Siganus sutor        33           33 Speargun 
 5 Pwani           30     5  2019 Siganus sutor        11.2         12 hook and…
 6 Pwani           30     5  2019 Siganus sutor        17           18 hook and…
 7 Pwani           30     5  2019 Siganus sutor        19           21 Gill net 
 8 Pwani           30     5  2019 Lethrinus mahsena    10           12 Traps    
 9 Pwani           30     5  2019 Lethrinus mahsena    11           12 Traps    
10 Pwani           30     5  2019 Lethrinus mahsena     9           12 Traps    
# ℹ 769 more rows
…
lfq.sample1 = lfq.sample1 %>% 
  rename(
    date = "Date",
    species = "Species",
    size_cm = "Size (cm)",
    size_class = "Size Class",
    gear_type = "Gear type",
    landing_site = "Landing_site"
    )

Using the head function from base R, let’s verify that we renamed the two variables successfully.

lfq.sample1

# A tibble: 779 × 6
   date                species         size_cm size_class gear_type landing_site
   <dttm>              <chr>             <dbl>      <dbl> <chr>     <chr>       
 1 2019-05-30 00:00:00 Siganus sutor      16.5         18 Speargun  Pwani       
 2 2019-05-30 00:00:00 Siganus sutor      12           12 Speargun  Pwani       
 3 2019-05-30 00:00:00 Siganus sutor      15           15 Speargun  Pwani       
 4 2019-05-30 00:00:00 Siganus sutor      33           33 Speargun  Pwani       
 5 2019-05-30 00:00:00 Siganus sutor      11.2         12 hook and… Pwani       
 6 2019-05-30 00:00:00 Siganus sutor      17           18 hook and… Pwani       
 7 2019-05-30 00:00:00 Siganus sutor      19           21 Gill net  Pwani       
 8 2019-05-30 00:00:00 Lethrinus mahs…    10           12 Traps     Pwani       
 9 2019-05-30 00:00:00 Lethrinus mahs…    11           12 Traps     Pwani       
10 2019-05-30 00:00:00 Lethrinus mahs…     9           12 Traps     Pwani       
# ℹ 769 more rows

As you can see, the new names have no spaces and all are written in small letters. Spaces in variables names were replaced with the underscore symbol.

Though the rename function is great tool to rename variables in the dataset, however there are times when you a dataset has hundred of variables names to change and using rename function from dplyr package become tedious. Furtunate , a janitor package has a nifty clean_names() function that clean all the variable names with a single line of code. I highly recommend incorporating it into your workflow.

lfq.sample1 = readxl::read_excel("../data/LFQ_sample_1.xls") %>% 
  janitor::clean_names()

lfq.sample1

# A tibble: 779 × 6
   date                species         size_cm size_class gear_type landing_site
   <dttm>              <chr>             <dbl>      <dbl> <chr>     <chr>       
 1 2019-05-30 00:00:00 Siganus sutor      16.5         18 Speargun  Pwani       
 2 2019-05-30 00:00:00 Siganus sutor      12           12 Speargun  Pwani       
 3 2019-05-30 00:00:00 Siganus sutor      15           15 Speargun  Pwani       
 4 2019-05-30 00:00:00 Siganus sutor      33           33 Speargun  Pwani       
 5 2019-05-30 00:00:00 Siganus sutor      11.2         12 hook and… Pwani       
 6 2019-05-30 00:00:00 Siganus sutor      17           18 hook and… Pwani       
 7 2019-05-30 00:00:00 Siganus sutor      19           21 Gill net  Pwani       
 8 2019-05-30 00:00:00 Lethrinus mahs…    10           12 Traps     Pwani       
 9 2019-05-30 00:00:00 Lethrinus mahs…    11           12 Traps     Pwani       
10 2019-05-30 00:00:00 Lethrinus mahs…     9           12 Traps     Pwani       
# ℹ 769 more rows
…
Rows: 779
Columns: 6
$ date         <dttm> 2019-05-30, 2019-05-30, 2019-05-30, 2019-05-30, 2019-05-…
$ species      <chr> "Siganus sutor", "Siganus sutor", "Siganus sutor", "Sigan…
$ size_cm      <dbl> 16.5, 12.0, 15.0, 33.0, 11.2, 17.0, 19.0, 10.0, 11.0, 9.0…
$ size_class   <dbl> 18, 12, 15, 33, 12, 18, 21, 12, 12, 12, 12, 12, 12, 12, 1…
$ gear_type    <chr> "Speargun", "Speargun", "Speargun", "Speargun", "hook and…
$ landing_site <chr> "Pwani", "Pwani", "Pwani", "Pwani", "Pwani", "Pwani", "Pw…

Suppose we are only interested in Siganus sutor species only from the dataset. For this purpose, we can use the filter() function from dplyr package (Wickham et al., 2019)

lfq.sample1 %>% 
  filter(species == "Siganus sutor")

# A tibble: 196 × 6
   date                species       size_cm size_class gear_type   landing_site
   <dttm>              <chr>           <dbl>      <dbl> <chr>       <chr>       
 1 2019-05-30 00:00:00 Siganus sutor    16.5         18 Speargun    Pwani       
 2 2019-05-30 00:00:00 Siganus sutor    12           12 Speargun    Pwani       
 3 2019-05-30 00:00:00 Siganus sutor    15           15 Speargun    Pwani       
 4 2019-05-30 00:00:00 Siganus sutor    33           33 Speargun    Pwani       
 5 2019-05-30 00:00:00 Siganus sutor    11.2         12 hook and l… Pwani       
 6 2019-05-30 00:00:00 Siganus sutor    17           18 hook and l… Pwani       
 7 2019-05-30 00:00:00 Siganus sutor    19           21 Gill net    Pwani       
 8 2019-06-25 00:00:00 Siganus sutor    36.5         39 Speargun    Pwani       
 9 2019-06-25 00:00:00 Siganus sutor    11           12 hook and l… Pwani       
10 2019-06-25 00:00:00 Siganus sutor    11           12 hook and l… Pwani       
# ℹ 186 more rows

3.3 Select

Sometimes, you want to select specific variables. For instance, We are interested in three variables – date, landing_site, species, size_cm but not so much in the other variables. A select() function dplyr package allows you to do exactly this.

lfq.sample1 %>% 
  select(date, landing_site, species, size_cm)

# A tibble: 779 × 4
   date                landing_site species           size_cm
   <dttm>              <chr>        <chr>               <dbl>
 1 2019-05-30 00:00:00 Pwani        Siganus sutor        16.5
 2 2019-05-30 00:00:00 Pwani        Siganus sutor        12  
 3 2019-05-30 00:00:00 Pwani        Siganus sutor        15  
 4 2019-05-30 00:00:00 Pwani        Siganus sutor        33  
 5 2019-05-30 00:00:00 Pwani        Siganus sutor        11.2
 6 2019-05-30 00:00:00 Pwani        Siganus sutor        17  
 7 2019-05-30 00:00:00 Pwani        Siganus sutor        19  
 8 2019-05-30 00:00:00 Pwani        Lethrinus mahsena    10  
 9 2019-05-30 00:00:00 Pwani        Lethrinus mahsena    11  
10 2019-05-30 00:00:00 Pwani        Lethrinus mahsena     9  
# ℹ 769 more rows

3.4 Arranging variables

Let’s say we want to know the species with larges and smallest size throughout the entire dataset. This can be done with the arrange() function.

lfq.sample1 %>% 
  arrange(size_cm)

# A tibble: 779 × 6
   date                species         size_cm size_class gear_type landing_site
   <dttm>              <chr>             <dbl>      <dbl> <chr>     <chr>       
 1 2019-07-12 00:00:00 Lethrinus harak     6            6 Traps     Pwani       
 2 2020-04-08 00:00:00 Lethrinus mahs…     8.3         12 Traps     Bahari      
 3 2020-04-08 00:00:00 Lethrinus mahs…     8.4         12 Traps     Bahari      
 4 2019-05-30 00:00:00 Lethrinus mahs…     9           12 Traps     Pwani       
 5 2019-05-30 00:00:00 Lethrinus mahs…     9           12 Traps     Pwani       
 6 2020-06-15 00:00:00 Siganus sutor       9           12 Traps     Bahari      
 7 2020-06-15 00:00:00 Lethrinus harak     9           12 Traps     Bahari      
 8 2019-05-30 00:00:00 Lethrinus mahs…     9.3         12 hook and… Pwani       
 9 2019-05-30 00:00:00 Lethrinus mahs…     9.3         12 hook and… Pwani       
10 2020-04-08 00:00:00 Lethrinus mahs…     9.4         12 Traps     Bahari      
# ℹ 769 more rows

As we can see, Lethrinus are the species with the smallest size in the datase. The smallest size in the dataset is 6cm. By default, the arrange() function sorts the data in ascending order. To display the data in descending order, we add desc().

lfq.sample1 %>% 
  arrange(desc(size_cm))

# A tibble: 779 × 6
   date                species         size_cm size_class gear_type landing_site
   <dttm>              <chr>             <dbl>      <dbl> <chr>     <chr>       
 1 2019-06-25 00:00:00 Siganus sutor      36.5         39 Speargun  Pwani       
 2 2019-05-30 00:00:00 Siganus sutor      33           33 Speargun  Pwani       
 3 2020-04-08 00:00:00 Calotomus caro…    30.4         33 Traps     Bahari      
 4 2020-06-15 00:00:00 Lethrinus mahs…    30.2         33 hook and… Bahari      
 5 2019-05-30 00:00:00 Leptoscarus va…    30           30 Speargun  Pwani       
 6 2020-04-08 00:00:00 Anampses spp.      30           30 Speargun  Bahari      
 7 2019-07-11 00:00:00 Lutjanus fulvi…    27.5         30 hook and… Pwani       
 8 2019-07-12 00:00:00 Siganus sutor      27.5         30 Gill net  Pwani       
 9 2019-07-11 00:00:00 Calotomus caro…    27           27 Beach se… Pwani       
10 2019-07-12 00:00:00 Siganus sutor      27           27 Gill net  Pwani       
# ℹ 769 more rows
…
3.6 Creating new variables

The mutate() command allows you to generate a new variable from existing. Let’s say you want to generate a day, month and year from date variables. The lubridate packaged (Grolemund and Wickham, 2011) has functions dedicated for dealing with dates, some of these functions include day(), month(), and year() that are used to extract values.

lfq.sample1 %>% 
  select(date, species, size_cm) %>% 
  mutate(
    year = lubridate::year(date),
    month = lubridate::month(date),
    day = lubridate::day(date)
    )

# A tibble: 779 × 6
   date                species           size_cm  year month   day
   <dttm>              <chr>               <dbl> <dbl> <dbl> <int>
 1 2019-05-30 00:00:00 Siganus sutor        16.5  2019     5    30
 2 2019-05-30 00:00:00 Siganus sutor        12    2019     5    30
 3 2019-05-30 00:00:00 Siganus sutor        15    2019     5    30
 4 2019-05-30 00:00:00 Siganus sutor        33    2019     5    30
 5 2019-05-30 00:00:00 Siganus sutor        11.2  2019     5    30
 6 2019-05-30 00:00:00 Siganus sutor        17    2019     5    30
 7 2019-05-30 00:00:00 Siganus sutor        19    2019     5    30
 8 2019-05-30 00:00:00 Lethrinus mahsena    10    2019     5    30
 9 2019-05-30 00:00:00 Lethrinus mahsena    11    2019     5    30
10 2019-05-30 00:00:00 Lethrinus mahsena     9    2019     5    30
# ℹ 769 more rows
…
