DATIKA - Importing table files into R
…
This solution work just fine if you just want to open a single file once. But if you want to reuse your code or run it multiple times, you probably don’t want to have to click and select your file each time. Instead, you can specify the path to your file in the call to read_csv.

Importing Excel files

Commonly our data is stored as a Excel file. There are several packages that can be used to import Excel files to R. I prefer the readxl package (Wickham and Bryan, 2018), so let’s install that:

install.packages("readxl")

The package has read_exel() function that allows us to specify which sheet within the Excel file to read. The function automatically convert the worksheet into a .csv file and read it. Let’s us import the the data in first sheet of the tidy_LFQ_sample_4.xlsx. Is a similar dataset that just imported in the previous section, but is in Excel format. We will use this file to illustrate how to import the excel file into R workspace with readxl package (Wickham and Bryan, 2018).

imported.lfq = readxl::read_excel("../data/tidy/tidy_LFQ_sample_4.xlsx", sheet = 1)

imported.lfq

# A tibble: 6,185 × 6
   site    date                tl_mm fl_mm wt_gm sex  
   <chr>   <dttm>              <dbl> <dbl> <dbl> <chr>
 1 Mombasa 2019-04-05 00:00:00   184   169  59.5 M    
 2 Mombasa 2019-04-05 00:00:00   185   169  54.7 M    
 3 Mombasa 2019-04-05 00:00:00   145   134  24.2 M    
 4 Mombasa 2019-04-05 00:00:00   189   173  61.4 M    
 5 Mombasa 2019-04-05 00:00:00   175   161  49.3 M    
 6 Mombasa 2019-04-05 00:00:00   165   153  38.5 M    
 7 Mombasa 2019-04-05 00:00:00   181   165  49.7 M    
 8 Mombasa 2019-04-05 00:00:00   176   163  45.3 M    
 9 Mombasa 2019-04-05 00:00:00   164   148  36.3 M    
10 Mombasa 2019-04-05 00:00:00   154   142  31.9 M    
# ℹ 6,175 more rows
…
